Read a file with amino acid substitutions — read_substitutions • agvgd
…
# lee2010_sub.txt is a file containing the missense variants studied by
# Lee et al. (2010): https://doi.org/10.1158/0008-5472.CAN-09-4563.
read_substitutions(file = system.file("extdata", "lee2010_sub.txt", package = "agvgd"))
#> # A tibble: 117 × 4
#>      res   poi ref   sub  
#>    <int> <int> <chr> <chr>
#>  1  1647    NA N     K    
#>  2  1651    NA S     F    
#>  3  1652    NA M     T    
#>  4  1652    NA M     I    
#>  5  1653    NA V     M    
#>  6  1655    NA S     F    
#>  7  1656    NA G     D    
#>  8  1662    NA F     S    
#>  9  1663    NA M     L    
#> 10  1663    NA M     K    
#> # … with 107 more rows
…
