Missense Variations in the BRCT Domain of BRCA1 • agvgd
…
To read in the 117 BRCA1 missense variants, i.e., the 117 substitutions, we use the function read_substitutions():

path <- system.file("extdata/lee2010_sub.txt", package = 'agvgd', mustWork = TRUE)
missense_variants <- read_substitutions(path)
missense_variants
#> # A tibble: 117 × 4
#>      res   poi ref   sub  
#>    <int> <int> <chr> <chr>
#>  1  1647    NA N     K    
#>  2  1651    NA S     F    
#>  3  1652    NA M     T    
#>  4  1652    NA M     I    
#>  5  1653    NA V     M    
#>  6  1655    NA S     F    
#>  7  1656    NA G     D    
#>  8  1662    NA F     S    
#>  9  1663    NA M     L    
#> 10  1663    NA M     K    
#> # … with 107 more rows

The list of missense variants comes with the indication of the residue number in the protein sequence, i.e. column res in missense_variants. As we’ll see next, the function agvgd() uses the alignment positions (column poi in missense_variants) instead to refer to those positions in the alignment.

The difference between res and poi is that res counts the residues in the protein primary sequence reference, while poi refers to the positions in the alignment, accounting for gaps.

So, before we proceed, we will update the missense_variants tibble and replace the NA values with the corresponding poi values. For that we use the function res_to_poi():

missense_variants$poi <- res_to_poi(brca1_alignment, missense_variants$res)
missense_variants
#> # A tibble: 117 × 4
#>      res   poi ref   sub  
#>    <int> <int> <chr> <chr>
#>  1  1647  1790 N     K    
#>  2  1651  1794 S     F    
#>  3  1652  1795 M     T    
#>  4  1652  1795 M     I    
#>  5  1653  1796 V     M    
#>  6  1655  1798 S     F    
#>  7  1656  1799 G     D    
#>  8  1662  1805 F     S    
#>  9  1663  1806 M     L    
#> 10  1663  1806 M     K    
#> # … with 107 more rows
…
